<?xml version="1.0" encoding="utf-8"?>
<!-- Generator: Adobe Illustrator 16.0.0, SVG Export Plug-In . SVG Version: 6.00 Build 0)  -->
<!DOCTYPE svg PUBLIC "-//W3C//DTD SVG 1.1//EN" "http://www.w3.org/Graphics/SVG/1.1/DTD/svg11.dtd">
<svg version="1.1" id="Calque_1" xmlns="http://www.w3.org/2000/svg" xmlns:xlink="http://www.w3.org/1999/xlink" x="0px" y="0px"
	 width="304.054px" height="336.11px" viewBox="99.309 191.766 304.054 336.11"
	 enable-background="new 99.309 191.766 304.054 336.11" xml:space="preserve">
<g>
	<path fill="#8F0F27" d="M342.866,283.375c0,50.597-41.013,91.609-91.609,91.609s-91.609-41.012-91.609-91.609
		c0-50.597,41.012-91.609,91.609-91.609C301.854,191.923,342.866,232.936,342.866,283.375z"/>
	<path fill="#8F0F27" d="M403.362,527.876H99.309v4.871c0-89.096,67.882-161.22,151.791-161.22h-4.085
		c86.424,0,156.348,72.124,156.348,161.22"/>
</g>
</svg>
