<?xml version="1.0" encoding="utf-8"?>
<!-- Generator: Adobe Illustrator 18.0.0, SVG Export Plug-In . SVG Version: 6.00 Build 0)  -->
<!DOCTYPE svg PUBLIC "-//W3C//DTD SVG 1.1//EN" "http://www.w3.org/Graphics/SVG/1.1/DTD/svg11.dtd">
<svg version="1.1" id="Calque_1" xmlns="http://www.w3.org/2000/svg" xmlns:xlink="http://www.w3.org/1999/xlink" x="0px" y="0px"
	 viewBox="0 0 390.3 390.3" enable-background="new 0 0 390.3 390.3" xml:space="preserve">
<rect x="-1.8" y="0.5" stroke="#000000" stroke-width="0.5" stroke-miterlimit="10" width="391.4" height="392.5"/>
<g>
	<path fill="#FFFFFF" d="M52.5,378.7v-1.9H60v-46.9h-7.5v-1.9h24.7v1.9h-7.5v22.5v24.4h7.5v1.9H52.5z M82.2,378.7v-1.9h7.9
		l-19.6-24.4l21.2-22.5h-8.7v-1.9h19.1v1.9h-7.4l-16.6,17.4l24.2,29.5h3.4v1.9H82.2z"/>
	<path fill="#FFFFFF" d="M143.4,371.8c-4.8,5.3-10.3,8-16.6,8c-6.3,0-11.8-2.6-16.5-7.9c-4.8-5.3-7.1-11.5-7.1-18.6
		c0-7.1,2.4-13.3,7.1-18.5c4.8-5.3,10.3-8,16.6-8c6.2,0,11.7,2.6,16.6,7.9c4.8,5.3,7.1,11.5,7.1,18.6S148.2,366.6,143.4,371.8z
		 M139.4,344.3c0-5-1-8.9-3-11.6c-2.1-2.6-5.3-3.9-9.5-3.9c-4.3,0-7.4,1.3-9.4,3.9c-2,2.6-3,6.5-3,11.6v18.1c0,5.1,1,9,3,11.6
		c2,2.6,5.2,3.9,9.4,3.9c4.3,0,7.4-1.3,9.4-3.9c2.1-2.7,3.1-6.6,3.1-11.6V344.3z"/>
	<path fill="#FFFFFF" d="M192.2,378.7H149v-1.9h7.5v-46.9H149v-1.9h41.8l0.5,13.7h-2.1c-1.1-4.9-2.7-8-4.9-9.5
		c-2.1-1.5-5.3-2.3-9.5-2.3h-8.7v21.8h2.1c3.8,0,6.4-0.9,7.6-2.7c1.3-1.9,1.9-4,1.9-6.5h2.1v21.2h-2.1c0-2.7-0.6-5-1.8-7
		c-1.3-2-3.8-3-7.7-3h-2.1v23.2h10.2c4.9,0,8.3-1.2,10.3-3.6c1.9-2.4,3.3-6,4-10.9h2.2L192.2,378.7z"/>
	<path fill="#FFFFFF" d="M229.2,378.7v-1.9h7.5v-23.2h-20.4v23.2h7.5v1.9h-24.7v-1.9h7.5v-46.9h-7.5v-1.9h24.7v1.9h-7.5v21.9h20.4
		v-21.9h-7.5v-1.9h24.7v1.9h-7.5v46.9h7.5v1.9H229.2z"/>
	<path fill="#FFFFFF" d="M299.9,378.7h-42.1v-1.9h7.5v-46.9h-7.5v-1.9h25.1v1.9H275v46.9h9.8c4.6,0,8-1.3,10.1-4
		c2.2-2.6,3.3-6.4,3.5-11.2h2.4L299.9,378.7z"/>
	<path fill="#FFFFFF" d="M334,329.8L320.8,354v22.8h8.4v1.9h-26.1v-1.9h8v-21.1l-15.9-25.8h-5.5v-1.9h24.7v1.9h-7.7l12.9,21.8
		l12.2-21.8h-7.9v-1.9h16.4v1.9H334z"/>
</g>
<path fill="#FFFFFF" stroke="#FFFFFF" stroke-width="2.9766" d="M306.2,158.4c16,26.8,28.4,12,28.4,12
	c-15.8-5.2-22.7-43.5-22.7-43.5c13.8,15.8,23.7,0.5,23.7,0.5c-20.3-8.6-14.9-22.1-14.9-22.1c17.6,2.6,18.3-12.9,18.3-12.9
	C328.1,93.1,318,81.5,318,81.5c20.5,1.1,15.8-15.3,15.8-15.3c-21.5,5.7-21-11.1-21-11.1C323.8,52,325,41.3,325,41.3
	c-31.4,4.8-27-13.5-27-13.5c10.7,3.4,14.5-3,14.5-3c-28.6-20-37.7-3.3-37.7-3.3c20.3,53.6,9.6,62.8,9.6,62.8
	c-25,27.5-50,18.3-50,18.3c-17.4-3.9-8.9-8.5-8.9-8.5c5.8,3.5,15.6-0.6,15.6-0.6c-14.8-1.9-13.9-18.7-13.9-18.7
	c8.7,2.8,16.3-7.1,16.3-7.1c-11.2,3.2-18.2-5.1-18.2-5.1c-2.7-21.4,12.3-13.9,12.3-13.9l14.7,7.4c7.1-4.7-5.2-18.9-5.2-18.9
	c-0.8-21.4-33.6-10.8-33.6-10.8l-8.4-5.4l2.4,12.6L201.7,48l-5.4,5.5l-5.4-5.5L185,33.7l2.4-12.6l-8.4,5.4c0,0-32.8-10.6-33.6,10.8
	c0,0-12.2,14.2-5.2,18.9l14.7-7.4c0,0,14.9-7.5,12.3,13.9c0,0-7,8.3-18.2,5.1c0,0,7.6,9.9,16.3,7.1c0,0,0.9,16.8-13.9,18.7
	c0,0,9.7,4,15.6,0.6c0,0,8.5,4.5-8.9,8.5c0,0-24.9,9.2-50-18.3c0,0-10.8-9.2,9.6-62.8c0,0-9.1-16.7-37.7,3.3c0,0,3.8,6.4,14.5,3
	c0,0,4.4,18.3-27,13.5c0,0,1.2,10.7,12.2,13.8c0,0,0.5,16.8-21,11.1c0,0-4.7,16.4,15.8,15.3c0,0-10.1,11.6-20.9,10.8
	c0,0,0.6,15.5,18.3,12.9c0,0,5.5,13.5-14.9,22.1c0,0,9.9,15.3,23.7-0.5c0,0-6.9,38.3-22.7,43.5c0,0,12.4,14.8,28.4-12
	c0,0,0.2,36.2-19.8,50.9c0,0,29.9,19.8,50.3-53.7c0,0,0.9,25.1-2.7,31.4c0,0,15.2,5.3,22.5-40.9c0,0,6,3.7,2.6,16.6
	c0,0,13.9-6.9,19.2-23.5c0,0,2.1,5.6,2.1,7s8.6-12.1,11.2-9.9c0,0,4.8,4.9,6.3,11.4c0,0,1,8.2,4.6,8.9c0,0-18.3,5-21,19.7
	c0,0-1.2,9.8-13.3,13.2c0,0,3.1,1.8,7.8,2.9c-4.1,4.8-10.7,12.4-13.2,13.6c0,0-9.4,9.7-18-3.9c0,0-9.2-1.3-12.8,5.2
	c0,0,3.9,1.6,6.8,4.4c0,0-2.4,0.5-3.4,9.9c0,0,3.4,1.8,7.8,1.8c0,0,5.8,2.4,4.4,9.4c0,0,11-0.5,11.8-11.8c0,0,6.8-9.9,19.9,4.2
	c0,0,7.6-14.1-4.4-16.7l13.4-12.3c1.3,3.4,3.8,8.4,7.8,9.8c0,0-5-18.5,14.8-25.3c0,0,2,32.5-14.4,39.5c0,0,26.2,5.7-9.3,15.5
	c0,0,3.3,15.4,13.9,9.3c0,0,2.9,15.5-19.3,11.6c0,0,4.2,26.6-15.7,14.9c0,0-12.6-7.4,1.2-21.3c0,0-28.3,12.2-6.1,31.5
	c0,0,11.8,11.5,33.8-6.4c0,0-3.3,20.8,10.9,20.3c0,0-0.2,12.4,10.4,19.8c10.6-7.4,10.4-19.8,10.4-19.8c14.2,0.6,10.9-20.3,10.9-20.3
	c22,17.9,33.8,6.4,33.8,6.4c22.2-19.3-6.1-31.5-6.1-31.5c13.7,13.9,1.2,21.3,1.2,21.3c-20,11.6-15.7-14.9-15.7-14.9
	c-22.1,4-19.3-11.6-19.3-11.6c10.7,6.1,13.9-9.3,13.9-9.3c-35.5-9.9-9.3-15.5-9.3-15.5c-16.4-7-14.4-39.5-14.4-39.5
	c19.8,6.9,14.8,25.3,14.8,25.3c4-1.5,6.5-6.5,7.8-9.9l13.5,12.4c-12,2.6-4.4,16.7-4.4,16.7c13.1-14.1,19.9-4.2,19.9-4.2
	c0.8,11.2,11.8,11.8,11.8,11.8c-1.3-7.1,4.4-9.4,4.4-9.4c4.4,0,7.8-1.8,7.8-1.8c-1-9.4-3.4-9.9-3.4-9.9c2.9-2.9,6.8-4.4,6.8-4.4
	c-3.7-6.5-12.8-5.2-12.8-5.2c-8.6,13.6-18,3.9-18,3.9c-2.5-1.2-9.2-8.9-13.2-13.6c4.7-1.1,7.6-2.9,7.6-2.9
	c-12.1-3.4-13.3-13.2-13.3-13.2c-2.7-14.7-21-19.7-21-19.7c3.6-0.6,4.6-8.9,4.6-8.9c1.5-6.4,6.3-11.4,6.3-11.4
	c2.6-2.2,11.2,11.2,11.2,9.9s2.1-7,2.1-7c5.3,16.6,19.2,23.5,19.2,23.5c-3.4-12.9,2.6-16.6,2.6-16.6c7.3,46.2,22.5,40.9,22.5,40.9
	c-3.6-6.4-2.7-31.4-2.7-31.4c20.4,73.5,50.3,53.7,50.3,53.7C306,194.6,306.2,158.4,306.2,158.4z"/>
</svg>
