<?xml version="1.0" encoding="utf-8"?>
<!-- Generator: Adobe Illustrator 18.0.0, SVG Export Plug-In . SVG Version: 6.00 Build 0)  -->
<!DOCTYPE svg PUBLIC "-//W3C//DTD SVG 1.1//EN" "http://www.w3.org/Graphics/SVG/1.1/DTD/svg11.dtd">
<svg version="1.1" id="Calque_1" xmlns="http://www.w3.org/2000/svg" xmlns:xlink="http://www.w3.org/1999/xlink" x="0px" y="0px"
	 viewBox="0 0 57 56.9" enable-background="new 0 0 57 56.9" xml:space="preserve">
<circle fill="none" stroke="#8F0F27" stroke-miterlimit="10" cx="28.5" cy="28.4" r="27.9"/>
<g>
	<path fill="#8F0F27" d="M50.4,28.9L50.4,28.9c1.2-0.2,1.1-2-0.1-2c-1.1-0.1-1.4-1.6-0.3-2c1.2-0.4,0.7-2.2-0.5-2h0
		c-1.1,0.2-1.6-1.3-0.7-1.9c1.1-0.6,0.3-2.3-0.8-1.9c-1.1,0.4-1.9-1-1-1.7h0c0.9-0.8-0.1-2.3-1.2-1.7v0c-1,0.6-2-0.6-1.3-1.5v0
		c0.8-1-0.5-2.2-1.5-1.4c-0.9,0.7-2.1-0.2-1.6-1.2c0.6-1.1-0.9-2.1-1.7-1.1v0c-0.7,0.9-2.1,0.2-1.8-0.9c0.4-1.2-1.3-1.9-1.9-0.8
		c-0.5,1-2,0.6-1.9-0.6c0.1-1.2-1.7-1.6-2-0.4c-0.3,1.1-1.9,0.9-2-0.2c-0.1-1.2-1.9-1.2-2,0c-0.1,1.1-1.7,1.3-2,0.2
		c-0.3-1.2-2.1-0.9-2,0.4c0.1,1.1-1.4,1.6-1.9,0.6c-0.6-1.1-2.2-0.4-1.9,0.8c0.3,1.1-1.1,1.8-1.8,0.9v0c-0.8-1-2.3,0-1.7,1.1
		c0.5,1-0.7,2-1.6,1.2h0c-0.9-0.8-2.2,0.4-1.5,1.4l0,0c0.7,0.9-0.3,2.1-1.3,1.5v0c-1.1-0.6-2.1,0.8-1.2,1.7c0.9,0.7,0.1,2.1-1,1.7
		c-1.2-0.4-1.9,1.2-0.8,1.9c1,0.6,0.5,2.1-0.7,1.9c-1.2-0.2-1.7,1.6-0.5,2h0c1.1,0.4,0.8,1.9-0.3,2c-1.2,0.1-1.3,1.9-0.1,2h0
		c1.1,0.2,1.2,1.7,0.1,2h0c-1.2,0.3-1,2.1,0.3,2c1.1-0.1,1.5,1.5,0.5,2v0c-1.1,0.5-0.5,2.2,0.7,1.9c1.1-0.3,1.8,1.2,0.8,1.8
		c-1,0.7-0.1,2.3,1,1.8c1-0.5,1.9,0.8,1.2,1.6c-0.9,0.9,0.3,2.3,1.3,1.5c0.9-0.7,2.1,0.4,1.5,1.4c-0.7,1,0.7,2.2,1.6,1.3
		c0.8-0.8,2.1,0,1.7,1.1c-0.5,1.2,1.1,2,1.8,0.9v0c0.6-1,2.1-0.4,1.9,0.7c-0.2,1.2,1.5,1.7,2,0.6c0.4-1,2-0.7,2,0.4
		c0,1.2,1.8,1.4,2,0.2c0.2-1.1,1.8-1.1,2,0c0.2,1.2,2,1,2-0.2c0-1.1,1.6-1.4,2-0.4c0.5,1.2,2.2,0.6,2-0.6c-0.2-1.1,1.3-1.7,1.9-0.7
		v0c0.7,1,2.3,0.2,1.8-0.9c-0.4-1,0.9-1.9,1.7-1.1c0.9,0.9,2.3-0.2,1.6-1.3c-0.6-0.9,0.5-2,1.5-1.4c1,0.7,2.2-0.6,1.3-1.5
		c-0.8-0.8,0.1-2.1,1.2-1.6c1.1,0.5,2-1,1-1.8c-0.9-0.7-0.3-2.1,0.8-1.8c1.2,0.3,1.8-1.4,0.7-1.9v0c-1-0.5-0.7-2,0.5-2
		c1.2,0.1,1.5-1.7,0.3-2C49.2,30.6,49.3,29,50.4,28.9z M29.2,47.6c-10.3,0-18.7-8.4-18.7-18.7s8.4-18.7,18.7-18.7
		s18.7,8.4,18.7,18.7S39.5,47.6,29.2,47.6z"/>
	<circle fill="#8F0F27" cx="29" cy="28.8" r="12.1"/>
</g>
</svg>
